﻿{
  "__comment__": "path to file: ~/config/NuPickers.json, JSONPath: $.__example__..*, Key JSONPath: key, Label JSONPath: label",
  "__example__": [
    {
      "key": "key1",
      "label": "label1"
    },
    {
      "key": "key2",
      "label": "label2"
    }
  ],
  "HeadingLevel": [
    {
      "key": "h1",
      "label": "H1"
    },
    {
      "key": "h2",
      "label": "H2"
    },
    {
      "key": "h3",
      "label": "H3"
    }
  ],
  "TextSize": [
    {
      "key": "normal",
      "label": "Normal"
    },
    {
      "key": "emphasis",
      "label": "Emphasis"
    },
    {
      "key": "small",
      "label": "Small"
    }
  ],
  "SpacerType": [
    {
      "key": "space",
      "label": "Space"
    },
    {
      "key": "line",
      "label": "Line"
    }
  ],
  "HorizontalAlignment": [
    {
      "key": "left",
      "label": "Left"
    },
    {
      "key": "center",
      "label": "Center"
    },
    {
      "key": "right",
      "label": "Right"
    }
  ],
  "LinkType": [
    {
      "key": "primary",
      "label": "Primary button"
    },
    {
      "key": "secondary",
      "label": "Secondary button"
    },
    {
      "key": "link",
      "label": "Link"
    }
  ],
  "ContentGridColumnsDistribution": [
    {
      "key": "1-1",
      "label": "1-1"
    },
    {
      "key": "1-1-1",
      "label": "1-1-1"
    },
    {
      "key": "1-1-1-1",
      "label": "1-1-1-1"
    },
    {
      "key": "1-2",
      "label": "1-2"
    },
    {
      "key": "2-1",
      "label": "2-1"
    },
    {
      "key": "1-3",
      "label": "1-3"
    },
    {
      "key": "1-2-1",
      "label": "1-2-1"
    }
  ],
  "ContentWithImagesDistribution": [
    {
      "key": "1t-1i",
      "label": "1t-1i"
    },
    {
      "key": "1i-1t",
      "label": "1i-1t"
    },
    {
      "key": "2t-1i",
      "label": "2t-1i"
    },
    {
      "key": "1i-2t",
      "label": "1i-2t"
    },
    {
      "key": "3t-1i",
      "label": "3t-1i"
    },
    {
      "key": "1i-3t",
      "label": "1i-3t"
    },
    {
      "key": "1t-2i",
      "label": "1t-2i"
    },
    {
      "key": "2i-1t",
      "label": "2i-1t"
    },
    {
      "key": "1t-3i",
      "label": "1t-3i"
    },
    {
      "key": "3i-1t",
      "label": "3i-1t"
    },
    {
      "key": "1t-1i-1i",
      "label": "1t-1i-1i"
    },
    {
      "key": "1i-1i-1t",
      "label": "1i-1i-1t"
    },
    {
      "key": "2t-1i-1i",
      "label": "2t-1i-1i"
    },
    {
      "key": "1i-1i-2t",
      "label": "1i-1i-2t"
    },
    {
      "key": "1t-1i-1i-1i",
      "label": "1t-1i-1i-1i"
    },
    {
      "key": "1i-1i-1i-1t",
      "label": "1i-1i-1i-1t"
    }
  ],
  "Priority": [
    {
      "key": "300",
      "label": "Low"
    },
    {
      "key": "200",
      "label": "Normal"
    },
    {
      "key": "100",
      "label": "High"
    }
  ],
  "VideoAspectRatio": [
    {
      "key": "16-9",
      "label": "16:9"
    },
    {
      "key": "4-3",
      "label": "4:3"
    }
  ],
  "ImageLayout": [
    {
      "key": "orig",
      "label": "Original"
    },
    {
      "key": "square",
      "label": "Square"
    },
    {
      "key": "port",
      "label": "Portrait"
    },
    {
      "key": "land-4-3",
      "label": "Landscape 4:3"
    },
    {
      "key": "land-16-9",
      "label": "Landscape 16:9"
    }
  ],
  "TableStyle": [
    {
      "key": "default",
      "label": "Default"
    },
    {
      "key": "borderless",
      "label": "Borderless"
    }
  ],
  "SectionWidth": [
    {
      "key": "standard",
      "label": "Standard"
    },
    {
      "key": "full-width",
      "label": "Full width"
    },
    {
      "key": "stretched",
      "label": "Stretched"
    }
  ]
}


